…
    ## New names:
    ## • `` -> `...15`
    ## • `` -> `...16`

Calculate new homes powered column.

``` r
mutate (Mr_trash_df, homes_powered = (weight_total*500)/30)
```

    ## # A tibble: 3,829 × 8
    ##    trash_wheel    dumpster date                weight_total volume_total
    ##    <chr>             <dbl> <dttm>                     <dbl>        <dbl>
    ##  1 Mr Trash Wheel        1 2014-05-16 00:00:00         4.31           18
    ##  2 Mr Trash Wheel        1 2014-05-16 00:00:00         4.31           18
    ##  3 Mr Trash Wheel        1 2014-05-16 00:00:00         4.31           18
    ##  4 Mr Trash Wheel        1 2014-05-16 00:00:00         4.31           18
    ##  5 Mr Trash Wheel        1 2014-05-16 00:00:00         4.31           18
    ##  6 Mr Trash Wheel        1 2014-05-16 00:00:00         4.31           18
    ##  7 Mr Trash Wheel        1 2014-05-16 00:00:00         4.31           18
    ##  8 Mr Trash Wheel        2 2014-05-16 00:00:00         2.74           13
    ##  9 Mr Trash Wheel        2 2014-05-16 00:00:00         2.74           13
    ## 10 Mr Trash Wheel        2 2014-05-16 00:00:00         2.74           13
    ## # ℹ 3,819 more rows
    ## # ℹ 3 more variables: homes_powered <dbl>, litter_type <chr>,
    ## #   litter_amount <dbl>
